<?xml version="1.0" encoding="utf-8"?>
<!-- Generator: Adobe Illustrator 25.4.1, SVG Export Plug-In . SVG Version: 6.00 Build 0)  -->
<svg version="1.1" id="Ñëîé_1" xmlns="http://www.w3.org/2000/svg" xmlns:xlink="http://www.w3.org/1999/xlink" x="0px" y="0px"
	 viewBox="0 0 6699.6 1480.6" style="enable-background:new 0 0 6699.6 1480.6;" xml:space="preserve">
<style type="text/css">
	.st0{fill-rule:evenodd;clip-rule:evenodd;fill:#FEF79F;}
	.st1{fill-rule:evenodd;clip-rule:evenodd;fill:#FFE500;}
	.st2{fill-rule:evenodd;clip-rule:evenodd;fill:#231F20;}
	.st3{fill:#231F20;}
	.st4{fill-rule:evenodd;clip-rule:evenodd;fill:#FFFFFF;}
</style>
<g>
	<polygon class="st0" points="4632.4,0 6699.6,0 5660,1480.6 4632.4,0 	"/>
	<path class="st1" d="M5644.8,0h1054.8L5660,1480.6l-134.2-193.4C5332.1,787.1,5371.6,358,5644.8,0L5644.8,0z"/>
	<path class="st2" d="M6699.6,0L5660,1480.6c-75.5-474.1,43.7-765.6,204.4-987.7C6072.5,205.4,6394.4,33,6699.6,0L6699.6,0z"/>
	<path class="st3" d="M90.3,178.7c-10.3,0-19.8-1.7-28.3-5.1c-8.5-3.4-15.8-8.4-21.9-14.7c-6.1-6.4-10.8-14.2-14.2-23.4
		c-3.4-9.2-5-19.4-5-30.9c0-11,1.6-21.1,4.7-30.2c3.1-9.1,7.6-16.9,13.6-23.5c6-6.5,13.2-11.5,21.8-15.2c8.5-3.6,18.2-5.4,29-5.4
		c8.8,0,16.9,1.1,24.3,3.4c7.3,2.2,13.8,5.5,19.2,9.7c5.5,4.2,9.8,9.3,13.2,15.2c3.3,6,5.4,12.7,6.2,20.1h-27.4
		c-0.4-3.9-1.4-7.4-3.3-10.6c-1.8-3.1-4.2-5.8-7.2-8c-3-2.2-6.6-3.8-10.8-5c-4.2-1.1-8.8-1.7-13.9-1.7c-6.2,0-11.9,1.1-16.9,3.3
		c-5,2.2-9.3,5.5-12.9,9.9c-3.5,4.4-6.3,9.7-8.3,16c-2,6.3-3,13.6-3,21.7c0,8.2,1,15.5,3,21.8c2,6.4,4.8,11.7,8.4,16
		c3.6,4.3,8,7.6,13.1,9.8c5.1,2.2,10.9,3.3,17.2,3.3c8.1,0,15.3-1.2,21.5-3.7c6.2-2.5,11.4-6.2,15.5-11.3v-17.7H95.6v-21.5h59.3
		v75.2h-17.5l-4.1-12.7c-4.9,4.9-10.8,8.6-17.9,11.2C108.5,177.4,100.1,178.7,90.3,178.7L90.3,178.7z M699.3,175.3H589.6V31.7h106.5
		v23.5h-79.1v35.2h73.9v23.5h-73.9v38.2h82.3V175.3L699.3,175.3z M1280,175.3h-25.6V116l0.6-56.4l-36,115.8h-25l-36.5-115.8
		l0.8,56.4v59.3h-25.9V31.7h39.6l34.1,111.7l34-111.7h39.8V175.3L1280,175.3z M1833.1,175.3h-109.7V31.7h106.5v23.5h-79.1v35.2h73.9
		v23.5h-73.9v38.2h82.3V175.3L1833.1,175.3z M2371.5,175.3h-109.7V31.7h106.5v23.5h-79.1v35.2h73.9v23.5h-73.9v38.2h82.3V175.3
		L2371.5,175.3z M2917.1,175.3h-27.8l-64-103.5l0.8,51.1v52.4h-25.9V31.7h27.8l64,103.5l-0.8-51.2V31.7h25.8V175.3L2917.1,175.3z
		 M3464.3,55.4h-43.7v119.9h-27.4V55.4H3350V31.7h114.3V55.4L3464.3,55.4z M4002,175.3h-109.7V31.7h106.5v23.5h-79.1v35.2h73.9v23.5
		h-73.9v38.2h82.3V175.3L4002,175.3z M642.7,549.1L517,1040.3h-99l-61.6-245.5l-34.3-146.3l-35.5,146.3l-60.7,245.5H125.7L0,549.1
		h94.6l53,243.6l29.9,146.7c5.9-23.7,11.5-47.2,16.8-70.6c5.4-23.3,11.2-46.8,17.6-70.6l61.9-249.1h96.5l61.2,249.1
		c5.9,23.8,11.6,47.3,17.3,70.6c5.7,23.4,11.5,46.9,17.3,70.6l29.6-146.7l53.4-243.6H642.7L642.7,549.1z M980.6,838.9l-73.4-208.6
		l-70.7,208.6H980.6L980.6,838.9z M1154.6,1040.3h-103.2l-45.8-125.6H812.4l-44.3,125.6h-98.3l184.2-491.2h107.3L1154.6,1040.3
		L1154.6,1040.3z M1238.1,549.1h165.8c87.1,0,152.7,20.1,196.7,60.1c44,40.1,66,100.9,66,182.8c0,165.6-87.5,248.3-262.7,248.3
		h-165.8V549.1L1238.1,549.1z M1334,960.8h68.9c32.6,0,59.6-3.7,80.9-11c21.3-7.4,37.9-18.5,49.6-32.9
		c22.8-29.8,34.2-71.3,34.2-124.6c0-51.7-11.4-91.8-34.2-120.4c-11.7-14-28.3-24.6-49.6-31.7c-21.3-7.2-48.3-10.8-80.9-10.8H1334
		V960.8L1334,960.8z M1776.2,549.1h166.2c87.4,0,153.1,20.1,197.3,60.1c44.1,40.1,66.1,100.9,66.1,182.8
		c0,165.6-87.8,248.3-263.4,248.3h-166.2V549.1L1776.2,549.1z M1872.3,960.8h69.1c32.7,0,59.8-3.7,81.1-11
		c21.4-7.4,38-18.5,49.7-32.9c22.9-29.8,34.3-71.3,34.3-124.6c0-51.7-11.4-91.8-34.3-120.4c-11.7-14-28.4-24.6-49.7-31.7
		c-21.4-7.2-48.5-10.8-81.1-10.8h-69.1V960.8L1872.3,960.8z M2420.9,1040.3h-100.4V549.1h100.4V1040.3L2420.9,1040.3z
		 M2979.2,1040.3h-99.7l-229.7-354.1l2.7,174.8v179.4h-92.8V549.1h99.6l229.7,354.1l-2.7-175.1v-179h92.8V1040.3L2979.2,1040.3z
		 M3519.3,1040.3h-106.4l-123-197.2l-29,49.1l-93,148.1h-107.1l172.8-258.5l-158.9-232.7h107.1l82,128.9c4.5,7.2,8.9,14.6,13.2,22
		c4.3,7.6,8.6,14.9,12.8,21.9c4.3-7.1,8.7-14.4,13.1-21.9c4.4-7.4,8.8-14.9,13.4-22l82.1-128.9h106.7l-158.9,232.7L3519.3,1040.3
		L3519.3,1040.3z M3997.7,549.1l-171.3,491.2h-103.3l-172-491.2h96.5c15.2,46.2,30,92.2,44.6,137.9c14.4,45.6,29.3,91.4,44.4,137.4
		l38.2,128.9l38.7-128.9c14.6-45.9,29.3-91.8,44.1-137.4c14.8-45.7,29.5-91.7,44.1-137.9H3997.7L3997.7,549.1z M4449.7,1040.3
		h-383.1V549.1h372v80.3h-276.4v120.4h257.9V830h-257.9v130.8h287.5V1040.3L4449.7,1040.3z M4929,1040.3h-371.9V549.1h361.1v80.3
		h-268.3v120.4h250.4V830h-250.4v130.8H4929V1040.3L4929,1040.3z M5451.9,1040.3h-96.1l-221.4-354.1L5137,861v179.4h-89.4V549.1
		h96.1l221.4,354.1l-2.6-175.1v-179h89.4V1040.3L5451.9,1040.3z"/>
	<path class="st4" d="M6414.9,410.1l-21-14.4l-159.7,230.2l-159.7-230.2l-21,14.4l15.4,22.5l-21.7,15.4l15.1,21.4l-21.1,14l-15-20.6
		l-43,30.1l15.2,21.8l20.6-14.9l15.2,20.5l-21,15.6l15.3,21.9l20.9-15.1l14.7,20.9l-20.9,15.2l15.1,21.6l43.6-30.2l-15.7-21.3
		l21.3-15l15.9,21.3l21.1-14.6l65,93.1h-157.5V658H6212l-56.4,81.3c-27.4-7.4-45.7,5.4-59.4,28.6c-46.6-21.9-81.4-7.9-100.6,19.4
		c-20.3,29-14.5,78.2,11.6,96.5l52,36.3l15.9-22.9l-47.6-32.1c-12.6-8.5-23.2-39.4-4.3-65c15.3-20.8,47.2-16.2,59.7-7.5l43.9,30.4
		l197-282.3L6414.9,410.1L6414.9,410.1z"/>
	<path class="st2" d="M6325.6,540.8l19.3,14l15.5-20.5l21.3,15l-15.7,21.3l43.6,30.2l15.1-21.6l-20.9-15.2l14.7-20.9l20.9,15.1
		l15.3-21.9l-21-15.6l15.2-20.5l20.6,14.9l15.2-21.8l-43-30.1l-15,20.6l-21.1-14l15.1-21.4l-21.4-15.4L6325.6,540.8L6325.6,540.8z
		 M6175.1,755.9l-48,67.5l25.2,17.8c25.3,17.8,17,48.4,8.9,61.4c-7.9,12.6-36.6,29.3-57.1,15.3l-29.5-20.1l-15.8,22.7l23.3,16.3
		c26.8,18.7,68.9,16.2,92.2-10.1c43.5-48.9,11-89.5-6.7-108.2C6184.6,795.1,6191.8,774.9,6175.1,755.9L6175.1,755.9z M6256.4,658.3
		L6256.4,658.3l160.1-0.1V634h-158.2l-10.6,16l-12.8,18.5l57.8,85.2c-14.6,19-9.8,41.4,7,64.6c-17.7,18.7-50.2,59.2-6.7,108.2
		c23.4,26.3,65.5,28.8,92.2,10.1l75.5-52.7c26.1-18.2,31.8-67.5,11.6-96.5c-19.1-27.4-54-41.3-100.6-19.4
		c-13.7-23.2-32.1-36-59.4-28.6L6256.4,658.3L6256.4,658.3z M6320.9,838.7l67.1-46.7c23.1-16,46.7-7,59.7,10.3
		c13.9,18.6,15.6,46.8-8.9,63.8l-71.6,50c-17.7,12.4-46.1,6.6-58.1-11.5C6296.1,885.2,6292.6,858.4,6320.9,838.7L6320.9,838.7z"/>
</g>
</svg>
